upd.c:80:12:clear_update_marker	224	static
upd.c:225:12:write_leb	64	static
upd.c:120:5:ubi_start_update	240	static
upd.c:174:5:ubi_start_leb_change	48	static
upd.c:271:5:ubi_more_update_data	96	static
upd.c:391:5:ubi_more_leb_change_data	64	static
