io.c:75:6:ubifs_ro_mode	0	static
io.c:349:27:next_sqnum	32	static
io.c:92:5:ubifs_leb_read	80	static
io.c:110:5:ubifs_leb_write	80	static
io.c:133:5:ubifs_leb_change	48	static
io.c:155:5:ubifs_leb_unmap	48	static
io.c:176:5:ubifs_leb_map	48	static
io.c:197:5:ubifs_is_mapped	48	static
io.c:238:5:ubifs_check_node	64	static
io.c:319:6:ubifs_pad	32	static
io.c:380:6:ubifs_prepare_node	64	static
io.c:413:6:ubifs_prep_grp_node	48	static
io.c:498:5:ubifs_wbuf_sync_nolock	48	static
io.c:573:5:ubifs_wbuf_seek_nolock	48	static
io.c:981:5:ubifs_read_node	80	static
io.c:904:5:ubifs_read_node_wbuf	96	static
io.c:1035:5:ubifs_wbuf_init	32	static
io.c:1085:6:ubifs_wbuf_add_ino_nolock	0	static
io.c:1129:5:ubifs_sync_wbufs_by_inode	48	static
